python,true,sonar-python-plugin-1.14.1.3143.jar|5246ba7166e8e9ab17d08a6514e9a086
cssfamily,false,sonar-css-plugin-1.1.1.1010.jar|489f1b0ff745f9a744c23a97445caf98
authgithub,false,sonar-auth-github-plugin-1.5.0.870.jar|59d98c94277e5faa8377ba521e440eba
kotlin,true,sonar-kotlin-plugin-1.5.0.315.jar|2d9994a460180757f3fbad54f03e818e
jacoco,false,sonar-jacoco-plugin-1.0.2.475.jar|513697d7dc792f02b10b1f4bcb9b48ab
go,false,sonar-go-plugin-1.1.1.2000.jar|e1977f8aaefcb2066437d32de0b347b0
scmsvn,false,sonar-scm-svn-plugin-1.9.0.1295.jar|37ae8929672c56a67919c60df53b4283
javascript,true,sonar-javascript-plugin-5.2.1.7778.jar|866bb1adbf016ea515620f1aaa15ec53
ruby,true,sonar-ruby-plugin-1.5.0.315.jar|74dfad9fb80c653ed5c959c3b2ed5a4a
sonarscala,true,sonar-scala-plugin-1.5.0.315.jar|45e3bfcd65e7578ed4cd89604de3b06f
findbugs,false,sonar-findbugs-plugin-3.11.1.jar|c9586d90652066b6c83db6723ac0ca72
csharp,false,sonar-csharp-plugin-7.15.0.8572.jar|73d90ce62c95649d02af4292588b027d
java,true,sonar-java-plugin-5.14.0.18788.jar|b85e79af43c5fd9d871f67c00ce3c18d
web,true,sonar-html-plugin-3.1.0.1615.jar|91f25bbf08401b93d651d5f3653d2e0e
ldap,false,sonar-ldap-plugin-2.2.0.608.jar|90da8f56fbbbb3624b8a3f6f1075860a
flex,false,sonar-flex-plugin-2.5.1.1831.jar|6ead78e9824cd63c2952b34ee1f1231c
xml,true,sonar-xml-plugin-2.0.1.2020.jar|0c3ec093156f0350edc21e2a1d7ef2ee
scmgit,false,sonar-scm-git-plugin-1.8.0.1574.jar|716a52eef1e2edefeafa4c83c9c33a22
php,true,sonar-php-plugin-3.2.0.4868.jar|84bac7bdcd3d78a2cd7037bfd70fcc3c
authsaml,false,sonar-auth-saml-plugin-1.1.0.181.jar|cb2c8bc61a566b6f9bd7f4a8d9518a25
typescript,true,sonar-typescript-plugin-1.9.0.3766.jar|4a3cc03335859f0839de090b0ed35956
vbnet,false,sonar-vbnet-plugin-7.15.0.8572.jar|511f59a24e74f40d7e810467f1e3a253
